@startuml

title __CONTROLLER's Class Diagram__\n

  namespace zti {
    namespace controller {
      class zti.controller.CalendarController {
          + addVisit()
          + calendar()
      }
    }
  }
  

  namespace zti {
    namespace controller {
      class zti.controller.CalendarEventController {
          + getAllVisits()
      }
    }
  }
  

  namespace zti {
    namespace controller {
      class zti.controller.CarController {
          + addCar()
          + cars()
      }
    }
  }
  

  namespace zti {
    namespace controller {
      class zti.controller.CuserController {
          + createCuser()
          + deleteCuser()
          + getAllCusers()
          + getCuserById()
          + updateCuser()
      }
    }
  }
  

  namespace zti {
    namespace controller {
      class zti.controller.FaviconController {
          ~ returnNoFavicon()
      }
    }
  }
  

  zti.controller.CalendarController o-- zti.dao.repository.CarRepository : carRepository
  zti.controller.CalendarController o-- zti.dao.repository.CuserRepository : cuserRepository
  zti.controller.CalendarController o-- zti.dao.repository.VisitRepository : visitRepository
  zti.controller.CalendarEventController o-- zti.dao.repository.VisitRepository : visitRepository
  zti.controller.CarController o-- zti.dao.repository.CarRepository : carRepository
  zti.controller.CarController o-- zti.dao.repository.CuserRepository : cuserRepository
  zti.controller.CuserController o-- zti.service.RegistrationService : registrationService
  zti.controller.CuserController o-- zti.dao.repository.CuserRepository : cuserRepository


right footer


PlantUML diagram generated by SketchIt! (https://bitbucket.org/pmesmeur/sketch.it)
For more information about this tool, please contact philippe.mesmeur@gmail.com
endfooter

@enduml
